…
``` r
themen_list <- group_by(artikel_list,Bereich, Titelthema)
alle_themen <- summarise(themen_list, count = n()) %>% arrange(desc(count))
titelthemen <- summarise(themen_list, count = n()) %>% filter(Titelthema == TRUE) %>% arrange(desc(count))
```

### Alle Artikel

``` r
alle_themen
```

    ## # A tibble: 35 x 3
    ## # Groups:   Bereich [20]
    ##        Bereich Titelthema count
    ##          <chr>      <lgl> <int>
    ##  1     Technik      FALSE    66
    ##  2  Astronomie      FALSE    54
    ##  3     Medizin      FALSE    41
    ##  4    Biologie      FALSE    40
    ##  5  Archälogie      FALSE    26
    ##  6   Allgemein      FALSE    25
    ##  7  Soziologie      FALSE    24
    ##  8  Astronomie       TRUE    21
    ##  9 Psychologie      FALSE    20
    ## 10     Technik       TRUE    20
    ## # ... with 25 more rows
…
